<?xml version="1.0" encoding="UTF-8" standalone="no"?>
<!-- Created with Inkscape (http://www.inkscape.org/) -->

<svg
   xmlns:dc="http://purl.org/dc/elements/1.1/"
   xmlns:cc="http://creativecommons.org/ns#"
   xmlns:rdf="http://www.w3.org/1999/02/22-rdf-syntax-ns#"
   xmlns:svg="http://www.w3.org/2000/svg"
   xmlns="http://www.w3.org/2000/svg"
   xmlns:sodipodi="http://sodipodi.sourceforge.net/DTD/sodipodi-0.dtd"
   xmlns:inkscape="http://www.inkscape.org/namespaces/inkscape"
   width="1024"
   height="1024"
   viewBox="0 0 270.93333 270.93335"
   version="1.1"
   id="svg8"
   inkscape:version="0.92.4 (5da689c313, 2019-01-14)"
   sodipodi:docname="web-minify-logo-1024.svg">
  <defs
     id="defs2" />
  <sodipodi:namedview
     id="base"
     pagecolor="#ffffff"
     bordercolor="#666666"
     borderopacity="1.0"
     inkscape:pageopacity="0.0"
     inkscape:pageshadow="2"
     inkscape:zoom="0.49497475"
     inkscape:cx="-1233.1117"
     inkscape:cy="550.82276"
     inkscape:document-units="mm"
     inkscape:current-layer="layer1"
     showgrid="false"
     units="px"
     fit-margin-top="0"
     fit-margin-left="0"
     fit-margin-right="0"
     fit-margin-bottom="0"
     inkscape:window-width="3840"
     inkscape:window-height="2131"
     inkscape:window-x="4890"
     inkscape:window-y="19"
     inkscape:window-maximized="1" />
  <metadata
     id="metadata5">
    <rdf:RDF>
      <cc:Work
         rdf:about="">
        <dc:format>image/svg+xml</dc:format>
        <dc:type
           rdf:resource="http://purl.org/dc/dcmitype/StillImage" />
        <dc:title />
      </cc:Work>
    </rdf:RDF>
  </metadata>
  <g
     inkscape:label="Layer 1"
     inkscape:groupmode="layer"
     id="layer1"
     transform="translate(-373.22086,-39.137461)">
    <g
       id="g840"
       transform="matrix(0.91102717,0,0,0.90660686,32.678125,28.960908)"
       inkscape:export-xdpi="95.997543"
       inkscape:export-ydpi="95.997543">
      <circle
         cy="161.37495"
         cx="521.91669"
         id="path826"
         style="opacity:1;fill:#ff6e0b;fill-opacity:1;stroke:#000000;stroke-width:26.45833397;stroke-miterlimit:4;stroke-dasharray:none;stroke-opacity:1"
         r="135.46666" />
      <g
         id="g834"
         transform="translate(0,-0.68754177)">
        <path
           style="fill:none;stroke:#000000;stroke-width:26.45833397;stroke-linecap:butt;stroke-linejoin:miter;stroke-miterlimit:4;stroke-dasharray:none;stroke-opacity:1"
           d="M 402.23772,86.084102 659.05537,132.96351"
           id="path828"
           inkscape:connector-curvature="0" />
        <path
           inkscape:connector-curvature="0"
           id="path830"
           d="M 402.23772,238.04089 659.05537,191.16148"
           style="fill:none;stroke:#000000;stroke-width:26.45833397;stroke-linecap:butt;stroke-linejoin:miter;stroke-miterlimit:4;stroke-dasharray:none;stroke-opacity:1" />
      </g>
    </g>
  </g>
</svg>
